Introduction to Tidyverse and Tidy Data
…
A note on pivot_* functions: I (Bryan) did not realize prior to developing this course that gather() and spread() were no longer the preferred way of converting between longer and wider data formats, so I am learning this new preferred implementation along with you! Instead of gather(), we should be using pivot_longer(), and instead of spread() we should be using pivot_wider(). The old functions still work but they are no longer being actively improved. If the old functions mean nothing to you, then dont worry about this note!

There are many ways to do this: going from messy data to tidy data is not a straight line. You can use the functions below in a different order that can take more or less lines of code  do this in the way that best makes sense to you and still gives you the result you want. Experiment using different lines to get to the same result!

library(tidyverse) #Loading the tidyverse
library(readxl) #For reading Excel files
library(janitor) #For cleaning up column names
library(forcats) #For implementing ordered categorical 
library(hms) #For working with times of day

raw_doodle = read_excel('data/r_doodle.xls')

raw_doodle

## # A tibble: 26 x 74
##    `Poll "Weekly R~ ...2  ...3  ...4  ...5  ...6  ...7  ...8  ...9  ...10 ...11
##    <chr>            <chr> <chr> <chr> <chr> <chr> <chr> <chr> <chr> <chr> <chr>
##  1 https://doodle.~ <NA>  <NA>  <NA>  <NA>  <NA>  <NA>  <NA>  <NA>  <NA>  <NA> 
##  2 <NA>             <NA>  <NA>  <NA>  <NA>  <NA>  <NA>  <NA>  <NA>  <NA>  <NA> 
##  3 <NA>             Augu~ <NA>  <NA>  <NA>  <NA>  <NA>  <NA>  <NA>  <NA>  <NA> 
##  4 <NA>             Mon ~ <NA>  <NA>  <NA>  <NA>  <NA>  <NA>  <NA>  <NA>  <NA> 
##  5 <NA>             8:00~ 8:30~ 9:00~ 11:0~ 11:3~ 12:0~ 12:3~ 1:00~ 1:30~ 2:00~
##  6 Mariel Kirschen  OK    <NA>  <NA>  <NA>  <NA>  OK    OK    OK    OK    OK   
##  7 Ayaka Habu       <NA>  OK    <NA>  <NA>  <NA>  <NA>  <NA>  <NA>  <NA>  <NA> 
##  8 Paul Leitman     OK    OK    OK    OK    OK    OK    <NA>  <NA>  <NA>  OK   
##  9 Michael Carraher <NA>  OK    OK    <NA>  <NA>  OK    OK    OK    OK    OK   
## 10 Esther Needham   OK    OK    OK    <NA>  OK    OK    OK    OK    OK    OK   
## # ... with 16 more rows, and 63 more variables: ...12 <chr>, ...13 <chr>,
## #   ...14 <chr>, ...15 <chr>, ...16 <chr>, ...17 <chr>, ...18 <chr>,
## #   ...19 <chr>, ...20 <chr>, ...21 <chr>, ...22 <chr>, ...23 <chr>,
## #   ...24 <chr>, ...25 <chr>, ...26 <chr>, ...27 <chr>, ...28 <chr>,
## #   ...29 <chr>, ...30 <chr>, ...31 <chr>, ...32 <chr>, ...33 <chr>,
## #   ...34 <chr>, ...35 <chr>, ...36 <chr>, ...37 <chr>, ...38 <chr>,
## #   ...39 <chr>, ...40 <chr>, ...41 <chr>, ...42 <chr>, ...43 <chr>,
## #   ...44 <chr>, ...45 <chr>, ...46 <chr>, ...47 <chr>, ...48 <chr>,
## #   ...49 <chr>, ...50 <chr>, ...51 <chr>, ...52 <chr>, ...53 <chr>,
…
#Take a look at data in R studio viewer and in Excel. 
#Column names are weird, the information we want is several rows down from the top. 
#Luckily we can use skip some rows and rename columns to make them easier to manipulate

less_raw_doodle = read_excel('data/r_doodle.xls',skip = 3) %>% #Skipping three rows, we will need both weekday and time data from top two new rows
  clean_names() %>%#Cleaning names to make them easier to use, R likes names that don't have spaces, special characters, or leading numbers. 
  rename(x2 = august_2020, # We don't need to know that it is August 2020
         name = x1) #Name is going to be our primary identifier 
  
#Take a look at the newly read in dataset
less_raw_doodle

## # A tibble: 23 x 74
##    name  x2    x3    x4    x5    x6    x7    x8    x9    x10   x11   x12   x13  
##    <chr> <chr> <chr> <chr> <chr> <chr> <chr> <chr> <chr> <chr> <chr> <chr> <chr>
##  1 <NA>  Mon ~ <NA>  <NA>  <NA>  <NA>  <NA>  <NA>  <NA>  <NA>  <NA>  <NA>  <NA> 
##  2 <NA>  8:00~ 8:30~ 9:00~ 11:0~ 11:3~ 12:0~ 12:3~ 1:00~ 1:30~ 2:00~ 2:30~ 3:00~
##  3 Mari~ OK    <NA>  <NA>  <NA>  <NA>  OK    OK    OK    OK    OK    OK    OK   
##  4 Ayak~ <NA>  OK    <NA>  <NA>  <NA>  <NA>  <NA>  <NA>  <NA>  <NA>  <NA>  <NA> 
##  5 Paul~ OK    OK    OK    OK    OK    OK    <NA>  <NA>  <NA>  OK    OK    OK   
##  6 Mich~ <NA>  OK    OK    <NA>  <NA>  OK    OK    OK    OK    OK    <NA>  <NA> 
##  7 Esth~ OK    OK    OK    <NA>  OK    OK    OK    OK    OK    OK    OK    OK   
##  8 Asha~ OK    OK    OK    <NA>  <NA>  <NA>  OK    OK    OK    OK    <NA>  <NA> 
##  9 Tomo~ <NA>  <NA>  <NA>  <NA>  <NA>  <NA>  <NA>  <NA>  <NA>  OK    OK    OK   
## 10 Tech~ OK    OK    OK    OK    OK    OK    OK    OK    OK    <NA>  <NA>  <NA> 
## # ... with 13 more rows, and 61 more variables: x14 <chr>, x15 <chr>,
## #   x16 <chr>, x17 <chr>, x18 <chr>, x19 <chr>, x20 <chr>, x21 <chr>,
## #   x22 <chr>, x23 <chr>, x24 <chr>, x25 <chr>, x26 <chr>, x27 <chr>,
## #   x28 <chr>, x29 <chr>, x30 <chr>, x31 <chr>, x32 <chr>, x33 <chr>,
## #   x34 <chr>, x35 <chr>, x36 <chr>, x37 <chr>, x38 <chr>, x39 <chr>,
## #   x40 <chr>, x41 <chr>, x42 <chr>, x43 <chr>, x44 <chr>, x45 <chr>,
## #   x46 <chr>, x47 <chr>, x48 <chr>, x49 <chr>, x50 <chr>, x51 <chr>,
## #   x52 <chr>, x53 <chr>, x54 <chr>, x55 <chr>, x56 <chr>, x57 <chr>,
## #   x58 <chr>, x59 <chr>, x60 <chr>, x61 <chr>, x62 <chr>, x63 <chr>,
…
#Look how tidy this data is!!! This will make plotting much easier in next steps
time_prefs_joined

## # A tibble: 1,460 x 8
##    name      value from_time to_time weekday first_name  last_name name_factor  
##    <chr>     <ord> <time>    <time>  <ord>   <chr>       <chr>     <ord>        
##  1 Techagum~ Yes   08:00     09:00   Mon     Techagumth~ Yanisa    Techagumthor~
##  2 Techagum~ Yes   08:30     09:30   Mon     Techagumth~ Yanisa    Techagumthor~
##  3 Techagum~ Yes   09:00     10:00   Mon     Techagumth~ Yanisa    Techagumthor~
##  4 Techagum~ Yes   11:00     12:00   Mon     Techagumth~ Yanisa    Techagumthor~
##  5 Techagum~ Yes   11:30     12:30   Mon     Techagumth~ Yanisa    Techagumthor~
##  6 Techagum~ Yes   12:00     13:00   Mon     Techagumth~ Yanisa    Techagumthor~
##  7 Techagum~ Yes   12:30     13:30   Mon     Techagumth~ Yanisa    Techagumthor~
##  8 Techagum~ Yes   13:00     14:00   Mon     Techagumth~ Yanisa    Techagumthor~
##  9 Techagum~ Yes   13:30     14:30   Mon     Techagumth~ Yanisa    Techagumthor~
## 10 Techagum~ No    14:00     15:00   Mon     Techagumth~ Yanisa    Techagumthor~
## # ... with 1,450 more rows
…
