R Programming Basics - Session 2
…
hour_frame = tibble(
  hour = 0:23
) %>%
  mutate(time_cat = case_when(
    hour >=5 & hour <= 6 ~ 'Early AM',
    hour >=7 & hour <=9~ 'AM Peak',
    hour >=10 & hour <=15 ~ 'Mid-day',
    hour >=16 & hour <=18 ~ 'PM Peak',
    hour >=19  & hour <=23 ~ 'Evening',
    TRUE ~ 'Overnight'
  ))

print(hour_frame)

# A tibble: 24 x 2
    hour time_cat 
   <int> <chr>    
 1     0 Overnight
 2     1 Overnight
 3     2 Overnight
 4     3 Overnight
 5     4 Overnight
 6     5 Early AM 
 7     6 Early AM 
 8     7 AM Peak  
 9     8 AM Peak  
10     9 AM Peak  
# ... with 14 more rows
…
