Introduction to the Tidyverse
…
library(tidyverse) #Loading the tidyverse
library(readxl) #For reading Excel files
library(janitor) #For cleaning up column names
library(forcats) #For implementing ordered categorical 
library(hms) #For working with times of day

raw_doodle = read_excel('data/r_doodle.xls')

#Take a look at data in R studio viewer and in Excel. 
#Column names are weird, the information we want is several rows down from the top. 
#Luckily we can use skip some rows and rename columns to make them easier to manipulate

raw_doodle

# A tibble: 26 x 74
   `Poll "Weekly R~ ...2  ...3  ...4  ...5  ...6  ...7  ...8  ...9 
   <chr>            <chr> <chr> <chr> <chr> <chr> <chr> <chr> <chr>
 1 https://doodle.~ <NA>  <NA>  <NA>  <NA>  <NA>  <NA>  <NA>  <NA> 
 2 <NA>             <NA>  <NA>  <NA>  <NA>  <NA>  <NA>  <NA>  <NA> 
 3 <NA>             Augu~ <NA>  <NA>  <NA>  <NA>  <NA>  <NA>  <NA> 
 4 <NA>             Mon ~ <NA>  <NA>  <NA>  <NA>  <NA>  <NA>  <NA> 
 5 <NA>             8:00~ 8:30~ 9:00~ 11:0~ 11:3~ 12:0~ 12:3~ 1:00~
 6 Mariel Kirschen  OK    <NA>  <NA>  <NA>  <NA>  OK    OK    OK   
 7 Ayaka Habu       <NA>  OK    <NA>  <NA>  <NA>  <NA>  <NA>  <NA> 
 8 Paul Leitman     OK    OK    OK    OK    OK    OK    <NA>  <NA> 
 9 Michael Carraher <NA>  OK    OK    <NA>  <NA>  OK    OK    OK   
10 Esther Needham   OK    OK    OK    <NA>  OK    OK    OK    OK   
# ... with 16 more rows, and 65 more variables: ...10 <chr>,
#   ...11 <chr>, ...12 <chr>, ...13 <chr>, ...14 <chr>, ...15 <chr>,
#   ...16 <chr>, ...17 <chr>, ...18 <chr>, ...19 <chr>, ...20 <chr>,
#   ...21 <chr>, ...22 <chr>, ...23 <chr>, ...24 <chr>, ...25 <chr>,
#   ...26 <chr>, ...27 <chr>, ...28 <chr>, ...29 <chr>, ...30 <chr>,
#   ...31 <chr>, ...32 <chr>, ...33 <chr>, ...34 <chr>, ...35 <chr>,
#   ...36 <chr>, ...37 <chr>, ...38 <chr>, ...39 <chr>, ...40 <chr>,
#   ...41 <chr>, ...42 <chr>, ...43 <chr>, ...44 <chr>, ...45 <chr>,
#   ...46 <chr>, ...47 <chr>, ...48 <chr>, ...49 <chr>, ...50 <chr>,
…
#Let's try to fix a few things at first
less_raw_doodle = read_excel('data/r_doodle.xls',skip = 3) %>% #Skipping three rows, we will need both weekday and time data from top two new rows
  clean_names() %>%#Cleaning names to make them easier to use, R likes names that don't have spaces, special characters, or leading numbers. 
  rename(x2 = august_2020, # We don't need to know that it is August 2020
         name = x1) #Name is going to be our primary identifier 
  
#Take a look at the newly read in dataset
less_raw_doodle

# A tibble: 23 x 74
   name   x2     x3    x4    x5    x6    x7    x8    x9    x10   x11  
   <chr>  <chr>  <chr> <chr> <chr> <chr> <chr> <chr> <chr> <chr> <chr>
 1 <NA>   Mon 10 <NA>  <NA>  <NA>  <NA>  <NA>  <NA>  <NA>  <NA>  <NA> 
 2 <NA>   8:00 ~ 8:30~ 9:00~ 11:0~ 11:3~ 12:0~ 12:3~ 1:00~ 1:30~ 2:00~
 3 Marie~ OK     <NA>  <NA>  <NA>  <NA>  OK    OK    OK    OK    OK   
 4 Ayaka~ <NA>   OK    <NA>  <NA>  <NA>  <NA>  <NA>  <NA>  <NA>  <NA> 
 5 Paul ~ OK     OK    OK    OK    OK    OK    <NA>  <NA>  <NA>  OK   
 6 Micha~ <NA>   OK    OK    <NA>  <NA>  OK    OK    OK    OK    OK   
 7 Esthe~ OK     OK    OK    <NA>  OK    OK    OK    OK    OK    OK   
 8 Ashan~ OK     OK    OK    <NA>  <NA>  <NA>  OK    OK    OK    OK   
 9 Tomok~ <NA>   <NA>  <NA>  <NA>  <NA>  <NA>  <NA>  <NA>  <NA>  OK   
10 Techa~ OK     OK    OK    OK    OK    OK    OK    OK    OK    <NA> 
# ... with 13 more rows, and 63 more variables: x12 <chr>, x13 <chr>,
#   x14 <chr>, x15 <chr>, x16 <chr>, x17 <chr>, x18 <chr>, x19 <chr>,
#   x20 <chr>, x21 <chr>, x22 <chr>, x23 <chr>, x24 <chr>, x25 <chr>,
#   x26 <chr>, x27 <chr>, x28 <chr>, x29 <chr>, x30 <chr>, x31 <chr>,
#   x32 <chr>, x33 <chr>, x34 <chr>, x35 <chr>, x36 <chr>, x37 <chr>,
#   x38 <chr>, x39 <chr>, x40 <chr>, x41 <chr>, x42 <chr>, x43 <chr>,
#   x44 <chr>, x45 <chr>, x46 <chr>, x47 <chr>, x48 <chr>, x49 <chr>,
#   x50 <chr>, x51 <chr>, x52 <chr>, x53 <chr>, x54 <chr>, x55 <chr>,
#   x56 <chr>, x57 <chr>, x58 <chr>, x59 <chr>, x60 <chr>, x61 <chr>,
…
#Look how tidy this data is!!! This will make plotting much easier in next steps
time_prefs_joined

# A tibble: 1,460 x 8
   name  value from_time to_time weekday first_name last_name
   <chr> <ord> <time>    <time>  <ord>   <chr>      <chr>    
 1 Tech~ Yes   08:00     09:00   Mon     Techagumt~ Yanisa   
 2 Tech~ Yes   08:30     09:30   Mon     Techagumt~ Yanisa   
 3 Tech~ Yes   09:00     10:00   Mon     Techagumt~ Yanisa   
 4 Tech~ Yes   11:00     12:00   Mon     Techagumt~ Yanisa   
 5 Tech~ Yes   11:30     12:30   Mon     Techagumt~ Yanisa   
 6 Tech~ Yes   12:00     13:00   Mon     Techagumt~ Yanisa   
 7 Tech~ Yes   12:30     13:30   Mon     Techagumt~ Yanisa   
 8 Tech~ Yes   13:00     14:00   Mon     Techagumt~ Yanisa   
 9 Tech~ Yes   13:30     14:30   Mon     Techagumt~ Yanisa   
10 Tech~ No    14:00     15:00   Mon     Techagumt~ Yanisa   
# ... with 1,450 more rows, and 1 more variable: name_factor <ord>
…
This section will focus on visualizing your data using ggplot2. R has several systems for making graphs, but ggplot2 is one of the most elegant and most versatile. ggplot2 implements the grammar of graphics, a coherent system for describing and building graphs. With ggplot2, you can do more faster by learning one system and applying it in many places.

If youâ€™d like to learn more about the theoretical underpinnings of ggplot2 before you start, Iâ€™d recommend reading â€œThe Layered Grammar of Graphicsâ€, http://vita.had.co.nz/papers/layered-grammar.pdf.

First steps

Letâ€™s use our first graph to answer a question: Do cars with big engines use more fuel than cars with small engines? You probably already have an answer, but try to make your answer precise. What does the relationship between engine size and fuel efficiency look like? Is it positive? Negative? Linear? Nonlinear?

The mpg data frame

You can test your answer with the mpg data frame found in ggplot2 (aka ggplot2::mpg). A data frame is a rectangular collection of variables (in the columns) and observations (in the rows). mpg contains observations collected by the US Environmental Protection Agency on 38 models of car.

mpg

# A tibble: 234 x 11
   manufacturer model displ  year   cyl trans drv     cty   hwy fl   
   <chr>        <chr> <dbl> <int> <int> <chr> <chr> <int> <int> <chr>
 1 audi         a4      1.8  1999     4 auto~ f        18    29 p    
 2 audi         a4      1.8  1999     4 manu~ f        21    29 p    
 3 audi         a4      2    2008     4 manu~ f        20    31 p    
 4 audi         a4      2    2008     4 auto~ f        21    30 p    
 5 audi         a4      2.8  1999     6 auto~ f        16    26 p    
 6 audi         a4      2.8  1999     6 manu~ f        18    26 p    
 7 audi         a4      3.1  2008     6 auto~ f        18    27 p    
 8 audi         a4 q~   1.8  1999     4 manu~ 4        18    26 p    
 9 audi         a4 q~   1.8  1999     4 auto~ 4        16    25 p    
10 audi         a4 q~   2    2008     4 manu~ 4        20    28 p    
# ... with 224 more rows, and 1 more variable: class <chr>
…
